{"message":"Rate summary retrieved successfully.","data":[{"rate":"5.20","accounts_count":11,"total_robux":747,"max_pre_order":745,"total_pre_order":0},{"rate":"5.10","accounts_count":3,"total_robux":1567,"max_pre_order":1567,"total_pre_order":0},{"rate":"5.00","accounts_count":5,"total_robux":70,"max_pre_order":24,"total_pre_order":0},{"rate":"4.90","accounts_count":3,"total_robux":800,"max_pre_order":785,"total_pre_order":0},{"rate":"4.80","accounts_count":11,"total_robux":72,"max_pre_order":28,"total_pre_order":0},{"rate":"4.70","accounts_count":5,"total_robux":1,"max_pre_order":1,"total_pre_order":0}],"pagination":{"limit":6,"page":1,"total_items":33,"total_pages":6}}